%YAML 1.1
%TAG !u! tag:unity3d.com,2011:
--- !u!114 &2594845358200156625
MonoBehaviour:
  m_ObjectHideFlags: 0
  m_CorrespondingSourceObject: {fileID: 0}
  m_PrefabInstance: {fileID: 0}
  m_PrefabAsset: {fileID: 0}
  m_GameObject: {fileID: 6567418710351045336}
  m_Enabled: 1
  m_EditorHideFlags: 0
  m_Script: {fileID: 11500000, guid: 5ba4ab90fbf6c17428cd3ee8cdd66d2b, type: 3}
  m_Name: 
  m_EditorClassIdentifier: 
  modello: {fileID: 0}
--- !u!1001 &2812414176424267283
PrefabInstance:
  m_ObjectHideFlags: 0
  serializedVersion: 2
  m_Modification:
    m_TransformParent: {fileID: 0}
    m_Modifications:
    - target: {fileID: 8945164050953727179, guid: d25c2e7cbd694ea4297e68da82b4cc90,
        type: 3}
      propertyPath: m_Name
      value: ButtonOggettoVariant
      objectReference: {fileID: 0}
    - target: {fileID: 4103550818533715727, guid: d25c2e7cbd694ea4297e68da82b4cc90,
        type: 3}
      propertyPath: m_LocalPosition.x
      value: 0
      objectReference: {fileID: 0}
    - target: {fileID: 4103550818533715727, guid: d25c2e7cbd694ea4297e68da82b4cc90,
        type: 3}
      propertyPath: m_LocalPosition.y
      value: 0
      objectReference: {fileID: 0}
    - target: {fileID: 4103550818533715727, guid: d25c2e7cbd694ea4297e68da82b4cc90,
        type: 3}
      propertyPath: m_LocalPosition.z
      value: 0
      objectReference: {fileID: 0}
    - target: {fileID: 4103550818533715727, guid: d25c2e7cbd694ea4297e68da82b4cc90,
        type: 3}
      propertyPath: m_LocalRotation.x
      value: -0
      objectReference: {fileID: 0}
    - target: {fileID: 4103550818533715727, guid: d25c2e7cbd694ea4297e68da82b4cc90,
        type: 3}
      propertyPath: m_LocalRotation.y
      value: -0
      objectReference: {fileID: 0}
    - target: {fileID: 4103550818533715727, guid: d25c2e7cbd694ea4297e68da82b4cc90,
        type: 3}
      propertyPath: m_LocalRotation.z
      value: -0
      objectReference: {fileID: 0}
    - target: {fileID: 4103550818533715727, guid: d25c2e7cbd694ea4297e68da82b4cc90,
        type: 3}
      propertyPath: m_LocalRotation.w
      value: 1
      objectReference: {fileID: 0}
    - target: {fileID: 4103550818533715727, guid: d25c2e7cbd694ea4297e68da82b4cc90,
        type: 3}
      propertyPath: m_RootOrder
      value: 0
      objectReference: {fileID: 0}
    - target: {fileID: 4103550818533715727, guid: d25c2e7cbd694ea4297e68da82b4cc90,
        type: 3}
      propertyPath: m_LocalEulerAnglesHint.x
      value: 0
      objectReference: {fileID: 0}
    - target: {fileID: 4103550818533715727, guid: d25c2e7cbd694ea4297e68da82b4cc90,
        type: 3}
      propertyPath: m_LocalEulerAnglesHint.y
      value: 0
      objectReference: {fileID: 0}
    - target: {fileID: 4103550818533715727, guid: d25c2e7cbd694ea4297e68da82b4cc90,
        type: 3}
      propertyPath: m_LocalEulerAnglesHint.z
      value: 0
      objectReference: {fileID: 0}
    - target: {fileID: 4103550818533715727, guid: d25c2e7cbd694ea4297e68da82b4cc90,
        type: 3}
      propertyPath: m_AnchoredPosition.x
      value: 0
      objectReference: {fileID: 0}
    - target: {fileID: 4103550818533715727, guid: d25c2e7cbd694ea4297e68da82b4cc90,
        type: 3}
      propertyPath: m_AnchoredPosition.y
      value: 0
      objectReference: {fileID: 0}
    - target: {fileID: 4103550818533715727, guid: d25c2e7cbd694ea4297e68da82b4cc90,
        type: 3}
      propertyPath: m_SizeDelta.x
      value: 0
      objectReference: {fileID: 0}
    - target: {fileID: 4103550818533715727, guid: d25c2e7cbd694ea4297e68da82b4cc90,
        type: 3}
      propertyPath: m_SizeDelta.y
      value: 60
      objectReference: {fileID: 0}
    - target: {fileID: 4103550818533715727, guid: d25c2e7cbd694ea4297e68da82b4cc90,
        type: 3}
      propertyPath: m_AnchorMin.x
      value: 0
      objectReference: {fileID: 0}
    - target: {fileID: 4103550818533715727, guid: d25c2e7cbd694ea4297e68da82b4cc90,
        type: 3}
      propertyPath: m_AnchorMin.y
      value: 0
      objectReference: {fileID: 0}
    - target: {fileID: 4103550818533715727, guid: d25c2e7cbd694ea4297e68da82b4cc90,
        type: 3}
      propertyPath: m_AnchorMax.x
      value: 0
      objectReference: {fileID: 0}
    - target: {fileID: 4103550818533715727, guid: d25c2e7cbd694ea4297e68da82b4cc90,
        type: 3}
      propertyPath: m_AnchorMax.y
      value: 0
      objectReference: {fileID: 0}
    - target: {fileID: 4103550818533715727, guid: d25c2e7cbd694ea4297e68da82b4cc90,
        type: 3}
      propertyPath: m_Pivot.x
      value: 0.5
      objectReference: {fileID: 0}
    - target: {fileID: 4103550818533715727, guid: d25c2e7cbd694ea4297e68da82b4cc90,
        type: 3}
      propertyPath: m_Pivot.y
      value: 0.5
      objectReference: {fileID: 0}
    - target: {fileID: 6544847300036358642, guid: d25c2e7cbd694ea4297e68da82b4cc90,
        type: 3}
      propertyPath: m_OnClick.m_PersistentCalls.m_Calls.Array.size
      value: 1
      objectReference: {fileID: 0}
    - target: {fileID: 6544847300036358642, guid: d25c2e7cbd694ea4297e68da82b4cc90,
        type: 3}
      propertyPath: m_OnClick.m_PersistentCalls.m_Calls.Array.data[0].m_Target
      value: 
      objectReference: {fileID: 2594845358200156625}
    - target: {fileID: 6544847300036358642, guid: d25c2e7cbd694ea4297e68da82b4cc90,
        type: 3}
      propertyPath: m_OnClick.m_PersistentCalls.m_Calls.Array.data[0].m_MethodName
      value: CaricaModello
      objectReference: {fileID: 0}
    - target: {fileID: 6544847300036358642, guid: d25c2e7cbd694ea4297e68da82b4cc90,
        type: 3}
      propertyPath: m_OnClick.m_PersistentCalls.m_Calls.Array.data[1].m_Mode
      value: 1
      objectReference: {fileID: 0}
    - target: {fileID: 6544847300036358642, guid: d25c2e7cbd694ea4297e68da82b4cc90,
        type: 3}
      propertyPath: m_OnClick.m_PersistentCalls.m_Calls.Array.data[1].m_CallState
      value: 2
      objectReference: {fileID: 0}
    - target: {fileID: 6544847300036358642, guid: d25c2e7cbd694ea4297e68da82b4cc90,
        type: 3}
      propertyPath: m_OnClick.m_PersistentCalls.m_Calls.Array.data[1].m_Target
      value: 
      objectReference: {fileID: 0}
    - target: {fileID: 6544847300036358642, guid: d25c2e7cbd694ea4297e68da82b4cc90,
        type: 3}
      propertyPath: m_OnClick.m_PersistentCalls.m_Calls.Array.data[1].m_MethodName
      value: Play
      objectReference: {fileID: 0}
    - target: {fileID: 6544847300036358642, guid: d25c2e7cbd694ea4297e68da82b4cc90,
        type: 3}
      propertyPath: m_OnClick.m_PersistentCalls.m_Calls.Array.data[1].m_Arguments.m_ObjectArgumentAssemblyTypeName
      value: UnityEngine.Object, UnityEngine
      objectReference: {fileID: 0}
    - target: {fileID: 6544847300036358642, guid: d25c2e7cbd694ea4297e68da82b4cc90,
        type: 3}
      propertyPath: m_OnClick.m_PersistentCalls.m_Calls.Array.data[0].m_CallState
      value: 1
      objectReference: {fileID: 0}
    - target: {fileID: 8046515166398514995, guid: d25c2e7cbd694ea4297e68da82b4cc90,
        type: 3}
      propertyPath: m_AnchorMax.x
      value: 0.95
      objectReference: {fileID: 0}
    - target: {fileID: 8046515166398514995, guid: d25c2e7cbd694ea4297e68da82b4cc90,
        type: 3}
      propertyPath: m_AnchoredPosition.x
      value: 0
      objectReference: {fileID: 0}
    - target: {fileID: 8046515166398514995, guid: d25c2e7cbd694ea4297e68da82b4cc90,
        type: 3}
      propertyPath: m_SizeDelta.x
      value: 0
      objectReference: {fileID: 0}
    - target: {fileID: 3206871827981145327, guid: d25c2e7cbd694ea4297e68da82b4cc90,
        type: 3}
      propertyPath: m_FontData.m_Alignment
      value: 5
      objectReference: {fileID: 0}
    m_RemovedComponents:
    - {fileID: 4662289748770454545, guid: d25c2e7cbd694ea4297e68da82b4cc90, type: 3}
  m_SourcePrefab: {fileID: 100100000, guid: d25c2e7cbd694ea4297e68da82b4cc90, type: 3}
--- !u!1 &6567418710351045336 stripped
GameObject:
  m_CorrespondingSourceObject: {fileID: 8945164050953727179, guid: d25c2e7cbd694ea4297e68da82b4cc90,
    type: 3}
  m_PrefabInstance: {fileID: 2812414176424267283}
  m_PrefabAsset: {fileID: 0}
